Advanced Research Methods 1
…
## Import data:

```r
resume <- read_csv("https://cgmoreh.github.io/SSC7001M/data/resume.csv")
```

---

```r
resume 
```

```
## # A tibble: 4,870 x 4
##    firstname sex    race   call
##    <chr>     <chr>  <chr> <dbl>
##  1 Allison   female white     0
##  2 Kristen   female white     0
##  3 Lakisha   female black     0
##  4 Latonya   female black     0
##  5 Carrie    female white     0
##  6 Jay       male   white     0
##  7 Jill      female white     0
##  8 Kenya     female black     0
##  9 Latonya   female black     0
## 10 Tyrone    male   black     0
## # ... with 4,860 more rows
```
…
